{
    "directionsRegionales": [
        {
            "code": "REGIONAL",
            "libelle": "Regional",
            "id": 4,
            "postes": [
                {
                    "code": "1042",
                    "libelle": "TRESORERIE CENTRALE DE RECOUVREMENT",
                    "adresse": "Unité Centrale de Recouvrement, Ex CED, Avenue REDA GDIRA ( Ex NAHDA)- RABAT (A côté de Poste MAROC et de la délégation du ministère de l’agriculture), Rabat",
                    "fax": null,
                    "secretariat": null,
                    "position": {
                        "lng": -6.873242,
                        "lat": 33.955037
                    },
                    "ordre": "24",
                    "typePosteId": 4,
                    "posteRattachement": "",
                    "villeId": 2764
                },
                {
                    "code": "1060",
                    "libelle": "TRESORIER MINISTERIEL AGRICULTURE ET DE LA PECHE MARITIME",
                    "adresse": "Ministère de l'Agriculture, SIS Quartier Administratif, Chellah, Rabat",
                    "fax": "0537574970",
                    "secretariat": "0537665547",
                    "position": {
                        "lng": -6.827844,
                        "lat": 34.009723
                    },
                    "ordre": "16",
                    "typePosteId": 4,
                    "posteRattachement": "",
                    "villeId": 2764
                },
                {
                    "code": "1061",
                    "libelle": "TRESORIER MINISTERIEL ECONOMIE ET FINANCES",
                    "adresse": "TM FINANCES, 77, Av Ibn Sina Agdal, Rabat",
                    "fax": "0537574963",
                    "secretariat": "0537578362",
                    "position": {
                        "lng": -6.857919,
                        "lat": 33.995092
                    },
                    "ordre": "12",
                    "typePosteId": 4,
                    "posteRattachement": "",
                    "villeId": 2764
                },
                {
                    "code": "1062",
                    "libelle": "TRESORIER MINISTERIEL SANTE",
                    "adresse": "Ministère de la Santé Public, SIS rue Tanger n°11, HASSAN, Rabat",
                    "fax": "0537574972",
                    "secretariat": "0537761732",
                    "position": {
                        "lng": -6.828369,
                        "lat": 34.010902
                    },
                    "ordre": "17",
                    "typePosteId": 4,
                    "posteRattachement": "",
                    "villeId": 2764
                },
                {
                    "code": "1063",
                    "libelle": "TRESORIER MINISTERIEL INTERIEUR",
                    "adresse": "Ministère de l'Intérieur, SIS Quartier Administratif, Boulevard Mohamed V, Rabat",
                    "fax": "0537574964",
                    "secretariat": "0537215087",
                    "position": {
                        "lng": -6.82330510357658,
                        "lat": 34.0096556666031
                    },
                    "ordre": "15",
                    "typePosteId": 4,
                    "posteRattachement": "",
                    "villeId": 2764
                },
                {
                    "code": "1064",
                    "libelle": "TRESORIER MINISTERIEL COUR ROYALE",
                    "adresse": "TM COURS ROYALE, SIS Mechwar Assaîd, Twarga, Rabat",
                    "fax": "0537574969",
                    "secretariat": "0537261197",
                    "position": {
                        "lng": -6.834797,
                        "lat": 34.013327
                    },
                    "ordre": "13",
                    "typePosteId": 4,
                    "posteRattachement": "",
                    "villeId": 2764
                },
                {
                    "code": "1065",
                    "libelle": "TRESORIER MINISTERIEL JUSTICE ET LIBERTES",
                    "adresse": "Ministère de la Justice, SIS Place Mamounia, Rabat",
                    "fax": "0537574974",
                    "secretariat": "0537263672",
                    "position": {
                        "lng": -6.838813,
                        "lat": 34.020132
                    },
                    "ordre": "11",
                    "typePosteId": 4,
                    "posteRattachement": "",
                    "villeId": 2764
                },
                {
                    "code": "1066",
                    "libelle": "TRESORIER MINISTERIEL EDUCATION NATIONALE ET FORMATION PROFESSIONNEL",
                    "adresse": "Trésorerie Ministérielle de l'Education Nationale  2 rue Inaouen Agdal Rabat",
                    "fax": "0537779147",
                    "secretariat": "0537779454/0537779490",
                    "position": {
                        "lng": -6.844248,
                        "lat": 34.005089
                    },
                    "ordre": "14",
                    "typePosteId": 4,
                    "posteRattachement": "",
                    "villeId": 2764
                },
                {
                    "code": "1067",
                    "libelle": "TRESORIER MINISTERIEL HABITAT ET DE LA POLITIQUE DE LA VILLE",
                    "adresse": "Département de l'Habitat à HAY RIYAD, Batiment C, Rabat.",
                    "fax": "0537572219",
                    "secretariat": "0537673828",
                    "position": {
                        "lng": -6.87211,
                        "lat": 33.955232
                    },
                    "ordre": "22",
                    "typePosteId": 4,
                    "posteRattachement": "",
                    "villeId": 2764
                },
                {
                    "code": "1068",
                    "libelle": "TRESORIER MINISTERIEL DEFENSE NATIONALE",
                    "adresse": "SIS MECHWAR ASSAÎD, TOUARGA, RABAT.",
                    "fax": "0537574976",
                    "secretariat": null,
                    "position": {
                        "lng": -6.834797,
                        "lat": 34.013327
                    },
                    "ordre": "10",
                    "typePosteId": 4,
                    "posteRattachement": "",
                    "villeId": 2764
                },
                {
                    "code": "1069",
                    "libelle": "TRESORIER MINISTERIEL EQUIPEMENT ET DU TRANSPORT",
                    "adresse": null,
                    "fax": "0537574982",
                    "secretariat": "0537201554",
                    "position": null,
                    "ordre": "18",
                    "typePosteId": 4,
                    "posteRattachement": "",
                    "villeId": 2764
                },
                {
                    "code": "1070",
                    "libelle": "TRESORIER MINISTERIEL ENERGIE MINES EAU ET ENVIRONNEMENT",
                    "adresse": null,
                    "fax": "0537574981",
                    "secretariat": "0537578271",
                    "position": null,
                    "ordre": "19",
                    "typePosteId": 4,
                    "posteRattachement": "",
                    "villeId": 2764
                },
                {
                    "code": "1071",
                    "libelle": "TRESORIER MINISTERIEL INDUSTRIE DU COMMERCE INVESTISSEMENT ET ECO NUM",
                    "adresse": null,
                    "fax": "0537574988",
                    "secretariat": "0537578216",
                    "position": null,
                    "ordre": "20",
                    "typePosteId": 4,
                    "posteRattachement": "",
                    "villeId": 2764
                },
                {
                    "code": "1072",
                    "libelle": "TRESORIER MINISTERIEL RELATIONS AVEC LE PARLEMENT ET SOCIETE CIVILE",
                    "adresse": null,
                    "fax": "  0537574989",
                    "secretariat": null,
                    "position": null,
                    "ordre": "21",
                    "typePosteId": 4,
                    "posteRattachement": "",
                    "villeId": 2764
                },
                {
                    "code": "1080",
                    "libelle": "TRESORIER MINISTERIEL AFFAIRES ETRANGERES",
                    "adresse": "Ministère des Affaires Etrangères, Hassan, Rabat",
                    "fax": "0537574977",
                    "secretariat": "0537761583",
                    "position": {
                        "lng": -6.822318,
                        "lat": 34.012133
                    },
                    "ordre": "23",
                    "typePosteId": 4,
                    "posteRattachement": "",
                    "villeId": 2764
                },
                {
                    "code": "1085",
                    "libelle": "AGENCE BANCAIRE CENTRALE",
                    "adresse": "Agence Bancaire de la Trésorerie Général du Royaume Avenu ALLAL BEN ABD ALLAH RABAT, Rabat",
                    "fax": "0537574965",
                    "secretariat": "0537578194",
                    "position": {
                        "lng": -6.834318,
                        "lat": 34.018647
                    },
                    "ordre": "50",
                    "typePosteId": 4,
                    "posteRattachement": "",
                    "villeId": 2764
                },
                {
                    "code": "1504",
                    "libelle": "TRESORERIE REGIONALE DE AGADIR",
                    "adresse": "Avenue Mly EL HASSAN 1er, Quartier DAKHLA, AGADIR",
                    "fax": "0537574817",
                    "secretariat": "0528232284",
                    "position": {
                        "lng": -9.565155,
                        "lat": 30.412695
                    },
                    "ordre": "4",
                    "typePosteId": 4,
                    "posteRattachement": "",
                    "villeId": 2972
                },
                {
                    "code": "1505",
                    "libelle": "TRESORERIE REGIONALE DE BENI MELLAL",
                    "adresse": "Quartier Administratif Beni Mellal.",
                    "fax": "0537574971",
                    "secretariat": "0530578414",
                    "position": {
                        "lng": 32.3271839,
                        "lat": -6.3611433
                    },
                    "ordre": "3",
                    "typePosteId": 4,
                    "posteRattachement": "",
                    "villeId": 2338
                },
                {
                    "code": "1506",
                    "libelle": "TRESORERIE REGIONALE DE CASABLANCA",
                    "adresse": "191, Bd. Bordeaux, Bourgogne",
                    "fax": "0537574702",
                    "secretariat": "0522481053",
                    "position": {
                        "lng": -7.637113,
                        "lat": 33.59982
                    },
                    "ordre": "2",
                    "typePosteId": 4,
                    "posteRattachement": "",
                    "villeId": 2237
                },
                {
                    "code": "1507",
                    "libelle": "TRESORERIE REGIONALE DE FES",
                    "adresse": "Avenue ABOU TAIB ALMOUTANABI  ATLAS FES BP: 9A,  Fès",
                    "fax": "0537572209",
                    "secretariat": "0535659803",
                    "position": {
                        "lng": -4.998329,
                        "lat": 34.033255
                    },
                    "ordre": "5",
                    "typePosteId": 4,
                    "posteRattachement": "",
                    "villeId": 2239
                },
                {
                    "code": "1508",
                    "libelle": "TRESORERIE REGIONALE DE MARRAKECH",
                    "adresse": "DAOUDIATE Près de la WILAYA de Marrakech MARRAKECH",
                    "fax": "0537574776",
                    "secretariat": "0524303426",
                    "position": null,
                    "ordre": "6",
                    "typePosteId": 4,
                    "posteRattachement": "",
                    "villeId": 2433
                },
                {
                    "code": "1509",
                    "libelle": "TRESORERIE REGIONALE DE OUJDA",
                    "adresse": "Bd Allal ben Abdellah Oujda.",
                    "fax": "0537574918",
                    "secretariat": "0536531560",
                    "position": null,
                    "ordre": "7",
                    "typePosteId": 4,
                    "posteRattachement": "",
                    "villeId": 2389
                },
                {
                    "code": "1510",
                    "libelle": "TRESORERIE REGIONALE DE RABAT",
                    "adresse": "Avenue Ibn Sina Rabat.",
                    "fax": "0537574788",
                    "secretariat": "0537578852",
                    "position": {
                        "lng": -6.851312,
                        "lat": 33.988643
                    },
                    "ordre": "1",
                    "typePosteId": 4,
                    "posteRattachement": "",
                    "villeId": 2764
                },
                {
                    "code": "1511",
                    "libelle": "TRESORERIE REGIONALE DE TANGER",
                    "adresse": "Cité Administrative, Près de la WILAYA de Tanger, TANGER",
                    "fax": "0537574920",
                    "secretariat": "0539940648",
                    "position": {
                        "lng": -5.806742,
                        "lat": 35.772844
                    },
                    "ordre": "8",
                    "typePosteId": 4,
                    "posteRattachement": "",
                    "villeId": 3068
                }
            ]
        }
    ]
}